Candidate 1

Candidate 2

Candidate 4

Candidate 4

Candidate 3

Candidate 4

Candidate 3

Candidate 1

Candidate 3

Candidate 4

Candidate 2

Candidate 5

Candidate 1

Candidate 2
Candidate 5

Candidate 1
