candidate8

candidate1

candidate3

candidate1

candidate7

candidate2

candidate1
candidate2

candidate2

candidate7

candidate3

candidate4

candidate6
candidate10

candidate1
candidate2

candidate6

candidate7

candidate1

candidate1

candidate3

candidate2
candidate3

candidate1

candidate5

candidate8
candidate10

candidate2

candidate1

candidate2
